lab5_lorenestasiuk
…
Exercise 5

### Use Mutate to make a new column with deaths/confirmed cases (Hint: this might be best done after joining the tables, but before pivoting longer).
time_series_long_joined %>% 
  mutate(ratio = Deaths/Confirmed)

## # A tibble: 65,968 x 8
##    Province_State Country_Region   Lat  Long Date       Confirmed Deaths ratio
##    <chr>          <chr>          <dbl> <dbl> <date>         <dbl>  <dbl> <dbl>
##  1 <NA>           Afghanistan     33.9  67.7 2020-01-22         0      0   NaN
##  2 <NA>           Afghanistan     33.9  67.7 2020-01-23         0      0   NaN
##  3 <NA>           Afghanistan     33.9  67.7 2020-01-24         0      0   NaN
##  4 <NA>           Afghanistan     33.9  67.7 2020-01-25         0      0   NaN
##  5 <NA>           Afghanistan     33.9  67.7 2020-01-26         0      0   NaN
##  6 <NA>           Afghanistan     33.9  67.7 2020-01-27         0      0   NaN
##  7 <NA>           Afghanistan     33.9  67.7 2020-01-28         0      0   NaN
##  8 <NA>           Afghanistan     33.9  67.7 2020-01-29         0      0   NaN
##  9 <NA>           Afghanistan     33.9  67.7 2020-01-30         0      0   NaN
## 10 <NA>           Afghanistan     33.9  67.7 2020-01-31         0      0   NaN
## #  with 65,958 more rows
…
